%YAML 1.1
%TAG !u! tag:unity3d.com,2011:
--- !u!114 &11400000
MonoBehaviour:
  m_ObjectHideFlags: 0
  m_CorrespondingSourceObject: {fileID: 0}
  m_PrefabInstance: {fileID: 0}
  m_PrefabAsset: {fileID: 0}
  m_GameObject: {fileID: 0}
  m_Enabled: 1
  m_EditorHideFlags: 0
  m_Script: {fileID: 11500000, guid: bf2edee5c58d82540a51f03df9d42094, type: 3}
  m_Name: UniversalRenderPipelineAssetHigh
  m_EditorClassIdentifier: 
  k_AssetVersion: 6
  k_AssetPreviousVersion: 5
  m_RendererType: 1
  m_RendererData: {fileID: 0}
  m_RendererDataList:
  - {fileID: 11400000, guid: 91b3b46bde6691141be654ad72993200, type: 2}
  m_DefaultRendererIndex: 0
  m_RequireDepthTexture: 0
  m_RequireOpaqueTexture: 0
  m_OpaqueDownsampling: 1
  m_SupportsTerrainHoles: 0
  m_SupportsHDR: 1
  m_MSAA: 1
  m_RenderScale: 1
  m_MainLightRenderingMode: 1
  m_MainLightShadowsSupported: 1
  m_MainLightShadowmapResolution: 2048
  m_AdditionalLightsRenderingMode: 0
  m_AdditionalLightsPerObjectLimit: 0
  m_AdditionalLightShadowsSupported: 0
  m_AdditionalLightsShadowmapResolution: 256
  m_ShadowDistance: 2000
  m_ShadowCascadeCount: 4
  m_Cascade2Split: 0.25
  m_Cascade3Split: {x: 0.1, y: 0.3}
  m_Cascade4Split: {x: 0.067, y: 0.087, z: 0.117}
  m_ShadowDepthBias: 1
  m_ShadowNormalBias: 1
  m_SoftShadowsSupported: 1
  m_UseSRPBatcher: 1
  m_SupportsDynamicBatching: 1
  m_MixedLightingSupported: 1
  m_DebugLevel: 0
  m_UseAdaptivePerformance: 0
  m_ColorGradingMode: 1
  m_ColorGradingLutSize: 16
  m_ShadowType: 1
  m_LocalShadowsSupported: 0
  m_LocalShadowsAtlasResolution: 256
  m_MaxPixelLights: 0
  m_ShadowAtlasResolution: 256
  m_ShaderVariantLogLevel: 0
  m_ShadowCascades: 2
