%YAML 1.1
%TAG !u! tag:unity3d.com,2011:
--- !u!114 &-4242795442727594055
MonoBehaviour:
  m_ObjectHideFlags: 1
  m_CorrespondingSourceObject: {fileID: 0}
  m_PrefabInstance: {fileID: 0}
  m_PrefabAsset: {fileID: 0}
  m_GameObject: {fileID: 0}
  m_Enabled: 1
  m_EditorHideFlags: 0
  m_Script: {fileID: 11500000, guid: cb32fdc3fb1456147b2dde532e33bfb2, type: 3}
  m_Name: 
  m_EditorClassIdentifier: 
  SoundFollowsObject: 0
  RetriggerWhenStateLoops: 1
  playEnterSound: 0
  stopEnterSoundOnExit: 0
  enterSoundGroup: '[None]'
  enterVariationName: 
  playExitSound: 0
  exitSoundGroup: '[None]'
  exitVariationName: 
  playAnimTimeSound: 1
  stopAnimTimeSoundOnExit: 0
  useStopTime: 0
  whenToStartSound: 0.2
  whenToStopSound: 0
  TimedSoundGroup: Spaceship
  timedVariationName: 
  playMultiAnimTimeSounds: 0
  StopMultiAnimTimeSoundsOnExit: 0
  numOfMultiSoundsToPlay: 0
  whenToStartMultiSound1: 0
  whenToStartMultiSound2: 0
  whenToStartMultiSound3: 0
  whenToStartMultiSound4: 0
  MultiSoundsTimedGroup: '[None]'
  multiTimedVariationName: 
--- !u!1107 &-1295199301872531245
AnimatorStateMachine:
  serializedVersion: 6
  m_ObjectHideFlags: 1
  m_CorrespondingSourceObject: {fileID: 0}
  m_PrefabInstance: {fileID: 0}
  m_PrefabAsset: {fileID: 0}
  m_Name: Base Layer
  m_ChildStates:
  - serializedVersion: 1
    m_State: {fileID: 2875904650068618942}
    m_Position: {x: 40, y: 230, z: 0}
  m_ChildStateMachines: []
  m_AnyStateTransitions: []
  m_EntryTransitions: []
  m_StateMachineTransitions: {}
  m_StateMachineBehaviours: []
  m_AnyStatePosition: {x: 50, y: 20, z: 0}
  m_EntryPosition: {x: 50, y: 120, z: 0}
  m_ExitPosition: {x: 800, y: 120, z: 0}
  m_ParentStateMachinePosition: {x: 800, y: 20, z: 0}
  m_DefaultState: {fileID: 2875904650068618942}
--- !u!91 &9100000
AnimatorController:
  m_ObjectHideFlags: 0
  m_CorrespondingSourceObject: {fileID: 0}
  m_PrefabInstance: {fileID: 0}
  m_PrefabAsset: {fileID: 0}
  m_Name: Spaceship 1 (6) 1
  serializedVersion: 5
  m_AnimatorParameters: []
  m_AnimatorLayers:
  - serializedVersion: 5
    m_Name: Base Layer
    m_StateMachine: {fileID: -1295199301872531245}
    m_Mask: {fileID: 0}
    m_Motions: []
    m_Behaviours: []
    m_BlendingMode: 0
    m_SyncedLayerIndex: -1
    m_DefaultWeight: 0
    m_IKPass: 0
    m_SyncedLayerAffectsTiming: 0
    m_Controller: {fileID: 9100000}
--- !u!1102 &2875904650068618942
AnimatorState:
  serializedVersion: 6
  m_ObjectHideFlags: 1
  m_CorrespondingSourceObject: {fileID: 0}
  m_PrefabInstance: {fileID: 0}
  m_PrefabAsset: {fileID: 0}
  m_Name: Spaceship6
  m_Speed: 1
  m_CycleOffset: 0
  m_Transitions: []
  m_StateMachineBehaviours:
  - {fileID: -4242795442727594055}
  m_Position: {x: 50, y: 50, z: 0}
  m_IKOnFeet: 0
  m_WriteDefaultValues: 1
  m_Mirror: 0
  m_SpeedParameterActive: 0
  m_MirrorParameterActive: 0
  m_CycleOffsetParameterActive: 0
  m_TimeParameterActive: 0
  m_Motion: {fileID: 7400000, guid: 805e33a52c6c8ef4c9d54f8929dbca57, type: 2}
  m_Tag: 
  m_SpeedParameter: 
  m_MirrorParameter: 
  m_CycleOffsetParameter: 
  m_TimeParameter: 
