%YAML 1.1
%TAG !u! tag:unity3d.com,2011:
--- !u!21 &2100000
Material:
  serializedVersion: 6
  m_ObjectHideFlags: 0
  m_CorrespondingSourceObject: {fileID: 0}
  m_PrefabInstance: {fileID: 0}
  m_PrefabAsset: {fileID: 0}
  m_Name: M_Flower_02_Color
  m_Shader: {fileID: -6465566751694194690, guid: 13548ddae0e121c4295291dfe96c2064,
    type: 3}
  m_ShaderKeywords: _ALPHATEST_ON
  m_LightmapFlags: 4
  m_EnableInstancingVariants: 0
  m_DoubleSidedGI: 0
  m_CustomRenderQueue: -1
  stringTagMap: {}
  disabledShaderPasses: []
  m_SavedProperties:
    serializedVersion: 3
    m_TexEnvs:
    - Texture2D_053ab4a0026640c290660c6bf898bae3:
        m_Texture: {fileID: 2800000, guid: 5617b48b34fe82848a6a017ba4357739, type: 3}
        m_Scale: {x: 1, y: 1}
        m_Offset: {x: 0, y: 0}
    - _Albedo:
        m_Texture: {fileID: 2800000, guid: 5617b48b34fe82848a6a017ba4357739, type: 3}
        m_Scale: {x: 1, y: 1}
        m_Offset: {x: 0, y: 0}
    - _AlbedoMask:
        m_Texture: {fileID: 2800000, guid: 700c847bdc878fd45a29b40ae3d599d3, type: 3}
        m_Scale: {x: 1, y: 1}
        m_Offset: {x: 0, y: 0}
    - _BumpMap:
        m_Texture: {fileID: 0}
        m_Scale: {x: 1, y: 1}
        m_Offset: {x: 0, y: 0}
    - _DetailAlbedoMap:
        m_Texture: {fileID: 0}
        m_Scale: {x: 1, y: 1}
        m_Offset: {x: 0, y: 0}
    - _DetailMask:
        m_Texture: {fileID: 0}
        m_Scale: {x: 1, y: 1}
        m_Offset: {x: 0, y: 0}
    - _DetailNormalMap:
        m_Texture: {fileID: 0}
        m_Scale: {x: 1, y: 1}
        m_Offset: {x: 0, y: 0}
    - _EmissionMap:
        m_Texture: {fileID: 0}
        m_Scale: {x: 1, y: 1}
        m_Offset: {x: 0, y: 0}
    - _MainTex:
        m_Texture: {fileID: 2800000, guid: a01dbefb8f823d741bb5b9dce2e1641a, type: 3}
        m_Scale: {x: 1, y: 1}
        m_Offset: {x: 0, y: 0}
    - _MetallicGlossMap:
        m_Texture: {fileID: 0}
        m_Scale: {x: 1, y: 1}
        m_Offset: {x: 0, y: 0}
    - _OcclusionMap:
        m_Texture: {fileID: 0}
        m_Scale: {x: 1, y: 1}
        m_Offset: {x: 0, y: 0}
    - _ParallaxMap:
        m_Texture: {fileID: 0}
        m_Scale: {x: 1, y: 1}
        m_Offset: {x: 0, y: 0}
    - _SpecGlossMap:
        m_Texture: {fileID: 0}
        m_Scale: {x: 1, y: 1}
        m_Offset: {x: 0, y: 0}
    - _TextureSample0:
        m_Texture: {fileID: 0}
        m_Scale: {x: 1, y: 1}
        m_Offset: {x: 0, y: 0}
    - _TextureSample1:
        m_Texture: {fileID: 0}
        m_Scale: {x: 1, y: 1}
        m_Offset: {x: 0, y: 0}
    - _texcoord:
        m_Texture: {fileID: 0}
        m_Scale: {x: 1, y: 1}
        m_Offset: {x: 0, y: 0}
    - unity_Lightmaps:
        m_Texture: {fileID: 0}
        m_Scale: {x: 1, y: 1}
        m_Offset: {x: 0, y: 0}
    - unity_LightmapsInd:
        m_Texture: {fileID: 0}
        m_Scale: {x: 1, y: 1}
        m_Offset: {x: 0, y: 0}
    - unity_ShadowMasks:
        m_Texture: {fileID: 0}
        m_Scale: {x: 1, y: 1}
        m_Offset: {x: 0, y: 0}
    m_Floats:
    - Vector1_42844ff8f26a4dfd95dd123e8294c4ec: 0.5
    - Vector1_d5632c843b0c42a2928438dac0283d98: 0
    - Vector1_e67a248b61544efe989217200fd94efe: 1.2
    - Vector1_e711be2b857d44b4a64e92167a3a3326: 0.2
    - Vector1_f6f26912c7394061bf225c5fd02c3853: 1
    - _AO: 2.4
    - _BaseLight: 0.35
    - _BranchPhase: 0
    - _BumpScale: 1
    - _CullMode: 0
    - _Cutoff: 0.5
    - _DetailNormalMapScale: 1
    - _DstBlend: 0
    - _EdgeFlutter: 1
    - _GG: 1
    - _GlossMapScale: 1
    - _Glossiness: 0.5
    - _GlossyReflections: 1
    - _LeafSpeed: 0.161
    - _LeafWindStrength: 0.036
    - _LeavesWindSpeed: 0.313
    - _LeavesWindStrength: 0.01
    - _Metallic: 0
    - _Mode: 1
    - _Occlusion: 7.5
    - _OcclusionStrength: 1
    - _Parallax: 0.02
    - _PrimaryFactor: 0
    - _SSSIntensity: 5.6
    - _SSSScale: 0.0009
    - _SecondaryFactor: 0
    - _Shininess: 0.1
    - _Smoothness: 0.073
    - _SmoothnessTextureChannel: 0
    - _SpecularHighlights: 1
    - _SquashAmount: 1
    - _SrcBlend: 1
    - _SubsuraceDistortion: 0.781
    - _TessValue: 15
    - _UVSec: 0
    - _WindMultiplier: 1
    - _WindSpeed: 0.204
    - _WindStrength: 0.206
    - _ZWrite: 1
    - __dirty: 0
    m_Colors:
    - Color_11e1192148f34f4f99747e221f72b6f7: {r: 1, g: 1, b: 1, a: 0}
    - _AlbedoTint: {r: 0.4712531, g: 0.6226415, b: 0.19090424, a: 1}
    - _Color: {r: 1, g: 0.82173985, b: 0.23113209, a: 1}
    - _EmissionColor: {r: 0, g: 0, b: 0, a: 1}
    - _SpecularColor: {r: 0.39215687, g: 0.39215687, b: 0.39215687, a: 1}
    - _SubsurfaceColor: {r: 0.5671476, g: 0.6886792, b: 0, a: 1}
    - _TreeInstanceColor: {r: 0, g: 0, b: 0, a: 0}
    - _TreeInstanceScale: {r: 0, g: 0, b: 0, a: 0}
    - _TreeOffset: {r: 0, g: 5, b: 0, a: 0}
    - _WaveAndDistance: {r: 12, g: 3.6, b: 1, a: 1}
    - _WavingTint: {r: 0.7019608, g: 0.6, b: 0.5019608, a: 0}
  m_BuildTextureStacks: []
